{
	"artifacts" : 
	[
		{
			"path" : "First-Game"
		}
	],
	"backtrace" : 1,
	"backtraceGraph" : 
	{
		"commands" : 
		[
			"add_executable",
			"target_link_libraries"
		],
		"files" : 
		[
			"CMakeLists.txt"
		],
		"nodes" : 
		[
			{
				"file" : 0
			},
			{
				"command" : 0,
				"file" : 0,
				"line" : 41,
				"parent" : 0
			},
			{
				"command" : 1,
				"file" : 0,
				"line" : 50,
				"parent" : 0
			}
		]
	},
	"compileGroups" : 
	[
		{
			"compileCommandFragments" : 
			[
				{
					"fragment" : "-g"
				},
				{
					"backtrace" : 2,
					"fragment" : "-fPIC"
				},
				{
					"fragment" : "-std=gnu++11"
				}
			],
			"defines" : 
			[
				{
					"backtrace" : 2,
					"define" : "QT_CORE_LIB"
				},
				{
					"backtrace" : 2,
					"define" : "QT_GUI_LIB"
				},
				{
					"backtrace" : 2,
					"define" : "QT_WIDGETS_LIB"
				}
			],
			"includes" : 
			[
				{
					"path" : "/home/mbonuchinedu/Documents/MainProjects/C++/build-First-Game-Desktop-Debug"
				},
				{
					"path" : "/home/mbonuchinedu/Documents/MainProjects/C++/First-Game"
				},
				{
					"backtrace" : 0,
					"path" : "/home/mbonuchinedu/Documents/MainProjects/C++/build-First-Game-Desktop-Debug/First-Game_autogen/include"
				},
				{
					"backtrace" : 2,
					"isSystem" : true,
					"path" : "/home/mbonuchinedu/anaconda3/include/qt"
				},
				{
					"backtrace" : 2,
					"isSystem" : true,
					"path" : "/home/mbonuchinedu/anaconda3/include/qt/QtWidgets"
				},
				{
					"backtrace" : 2,
					"isSystem" : true,
					"path" : "/home/mbonuchinedu/anaconda3/include/qt/QtGui"
				},
				{
					"backtrace" : 2,
					"isSystem" : true,
					"path" : "/home/mbonuchinedu/anaconda3/include/qt/QtCore"
				},
				{
					"backtrace" : 2,
					"isSystem" : true,
					"path" : "/home/mbonuchinedu/anaconda3/./mkspecs/linux-g++"
				}
			],
			"language" : "CXX",
			"sourceIndexes" : 
			[
				0,
				1,
				2
			]
		}
	],
	"dependencies" : 
	[
		{
			"backtrace" : 0,
			"id" : "First-Game_autogen::@6890427a1f51a3e7e1df"
		}
	],
	"id" : "First-Game::@6890427a1f51a3e7e1df",
	"link" : 
	{
		"commandFragments" : 
		[
			{
				"fragment" : "-g",
				"role" : "flags"
			},
			{
				"fragment" : "",
				"role" : "flags"
			},
			{
				"fragment" : "-Wl,-rpath,/home/mbonuchinedu/anaconda3/lib",
				"role" : "libraries"
			},
			{
				"backtrace" : 2,
				"fragment" : "/home/mbonuchinedu/anaconda3/lib/libQt5Widgets.so.5.9.7",
				"role" : "libraries"
			},
			{
				"fragment" : "/home/mbonuchinedu/anaconda3/lib/libQt5Gui.so.5.9.7",
				"role" : "libraries"
			},
			{
				"fragment" : "/home/mbonuchinedu/anaconda3/lib/libQt5Core.so.5.9.7",
				"role" : "libraries"
			}
		],
		"language" : "CXX"
	},
	"name" : "First-Game",
	"nameOnDisk" : "First-Game",
	"paths" : 
	{
		"build" : ".",
		"source" : "."
	},
	"sourceGroups" : 
	[
		{
			"name" : "Source Files",
			"sourceIndexes" : 
			[
				0,
				1,
				2
			]
		},
		{
			"name" : "Header Files",
			"sourceIndexes" : 
			[
				3
			]
		},
		{
			"name" : "",
			"sourceIndexes" : 
			[
				4,
				5
			]
		},
		{
			"name" : "CMake Rules",
			"sourceIndexes" : 
			[
				6
			]
		}
	],
	"sources" : 
	[
		{
			"backtrace" : 0,
			"compileGroupIndex" : 0,
			"isGenerated" : true,
			"path" : "/home/mbonuchinedu/Documents/MainProjects/C++/build-First-Game-Desktop-Debug/First-Game_autogen/mocs_compilation.cpp",
			"sourceGroupIndex" : 0
		},
		{
			"backtrace" : 1,
			"compileGroupIndex" : 0,
			"path" : "main.cpp",
			"sourceGroupIndex" : 0
		},
		{
			"backtrace" : 1,
			"compileGroupIndex" : 0,
			"path" : "mainwindow.cpp",
			"sourceGroupIndex" : 0
		},
		{
			"backtrace" : 1,
			"path" : "mainwindow.h",
			"sourceGroupIndex" : 1
		},
		{
			"backtrace" : 1,
			"path" : "mainwindow.ui",
			"sourceGroupIndex" : 2
		},
		{
			"backtrace" : 1,
			"isGenerated" : true,
			"path" : "First-Game_en_US.ts",
			"sourceGroupIndex" : 2
		},
		{
			"backtrace" : 0,
			"isGenerated" : true,
			"path" : "First-Game_en_US.ts.rule",
			"sourceGroupIndex" : 3
		}
	],
	"type" : "EXECUTABLE"
}
